%YAML 1.1
%TAG !u! tag:unity3d.com,2011:
--- !u!64 &6557408054928985689
MeshCollider:
  m_ObjectHideFlags: 0
  m_CorrespondingSourceObject: {fileID: 0}
  m_PrefabInstance: {fileID: 0}
  m_PrefabAsset: {fileID: 0}
  m_GameObject: {fileID: 6557408056209367610}
  m_Material: {fileID: 0}
  m_IsTrigger: 0
  m_Enabled: 1
  serializedVersion: 3
  m_Convex: 1
  m_CookingOptions: 30
  m_Mesh: {fileID: 4300000, guid: 58e56545a2d219944b78729eaa444a51, type: 3}
--- !u!208 &4830700248094961410
NavMeshObstacle:
  m_ObjectHideFlags: 0
  m_CorrespondingSourceObject: {fileID: 0}
  m_PrefabInstance: {fileID: 0}
  m_PrefabAsset: {fileID: 0}
  m_GameObject: {fileID: 6557408056209367610}
  m_Enabled: 1
  serializedVersion: 3
  m_Shape: 1
  m_Extents: {x: 0.5, y: 1, z: 0.5}
  m_MoveThreshold: 0.1
  m_Carve: 0
  m_CarveOnlyStationary: 1
  m_Center: {x: -0.003, y: 1, z: 0.186}
  m_TimeToStationary: 0.5
--- !u!1 &6557408056210381796
GameObject:
  m_ObjectHideFlags: 0
  m_CorrespondingSourceObject: {fileID: 0}
  m_PrefabInstance: {fileID: 0}
  m_PrefabAsset: {fileID: 0}
  serializedVersion: 6
  m_Component:
  - component: {fileID: 6557408056210381797}
  m_Layer: 0
  m_Name: Pommier
  m_TagString: Untagged
  m_Icon: {fileID: 0}
  m_NavMeshLayer: 0
  m_StaticEditorFlags: 4294967295
  m_IsActive: 1
--- !u!4 &6557408056210381797
Transform:
  m_ObjectHideFlags: 0
  m_CorrespondingSourceObject: {fileID: 0}
  m_PrefabInstance: {fileID: 0}
  m_PrefabAsset: {fileID: 0}
  m_GameObject: {fileID: 6557408056210381796}
  m_LocalRotation: {x: 0, y: 0, z: 0, w: 1}
  m_LocalPosition: {x: 30, y: 0, z: 25}
  m_LocalScale: {x: 1, y: 1, z: 1}
  m_Children:
  - {fileID: 6557408056209170722}
  m_Father: {fileID: 0}
  m_RootOrder: 0
  m_LocalEulerAnglesHint: {x: 0, y: 0, z: 0}
--- !u!1001 &6557408056209484972
PrefabInstance:
  m_ObjectHideFlags: 0
  serializedVersion: 2
  m_Modification:
    m_TransformParent: {fileID: 6557408056210381797}
    m_Modifications:
    - target: {fileID: 151190, guid: a9cc5585b9634a9449920c03ec6bc243, type: 3}
      propertyPath: m_Name
      value: Tree Type0 06
      objectReference: {fileID: 0}
    - target: {fileID: 151190, guid: a9cc5585b9634a9449920c03ec6bc243, type: 3}
      propertyPath: m_StaticEditorFlags
      value: 4294967295
      objectReference: {fileID: 0}
    - target: {fileID: 478606, guid: a9cc5585b9634a9449920c03ec6bc243, type: 3}
      propertyPath: m_LocalPosition.x
      value: 0
      objectReference: {fileID: 0}
    - target: {fileID: 478606, guid: a9cc5585b9634a9449920c03ec6bc243, type: 3}
      propertyPath: m_LocalPosition.y
      value: -0
      objectReference: {fileID: 0}
    - target: {fileID: 478606, guid: a9cc5585b9634a9449920c03ec6bc243, type: 3}
      propertyPath: m_LocalPosition.z
      value: 0
      objectReference: {fileID: 0}
    - target: {fileID: 478606, guid: a9cc5585b9634a9449920c03ec6bc243, type: 3}
      propertyPath: m_LocalRotation.x
      value: -0
      objectReference: {fileID: 0}
    - target: {fileID: 478606, guid: a9cc5585b9634a9449920c03ec6bc243, type: 3}
      propertyPath: m_LocalRotation.y
      value: -0
      objectReference: {fileID: 0}
    - target: {fileID: 478606, guid: a9cc5585b9634a9449920c03ec6bc243, type: 3}
      propertyPath: m_LocalRotation.z
      value: -0
      objectReference: {fileID: 0}
    - target: {fileID: 478606, guid: a9cc5585b9634a9449920c03ec6bc243, type: 3}
      propertyPath: m_LocalRotation.w
      value: 1
      objectReference: {fileID: 0}
    - target: {fileID: 478606, guid: a9cc5585b9634a9449920c03ec6bc243, type: 3}
      propertyPath: m_RootOrder
      value: 0
      objectReference: {fileID: 0}
    - target: {fileID: 478606, guid: a9cc5585b9634a9449920c03ec6bc243, type: 3}
      propertyPath: m_LocalEulerAnglesHint.x
      value: 0
      objectReference: {fileID: 0}
    - target: {fileID: 478606, guid: a9cc5585b9634a9449920c03ec6bc243, type: 3}
      propertyPath: m_LocalEulerAnglesHint.y
      value: 0
      objectReference: {fileID: 0}
    - target: {fileID: 478606, guid: a9cc5585b9634a9449920c03ec6bc243, type: 3}
      propertyPath: m_LocalEulerAnglesHint.z
      value: 0
      objectReference: {fileID: 0}
    m_RemovedComponents: []
  m_SourcePrefab: {fileID: 100100000, guid: a9cc5585b9634a9449920c03ec6bc243, type: 3}
--- !u!1 &6557408056209367610 stripped
GameObject:
  m_CorrespondingSourceObject: {fileID: 151190, guid: a9cc5585b9634a9449920c03ec6bc243,
    type: 3}
  m_PrefabInstance: {fileID: 6557408056209484972}
  m_PrefabAsset: {fileID: 0}
--- !u!4 &6557408056209170722 stripped
Transform:
  m_CorrespondingSourceObject: {fileID: 478606, guid: a9cc5585b9634a9449920c03ec6bc243,
    type: 3}
  m_PrefabInstance: {fileID: 6557408056209484972}
  m_PrefabAsset: {fileID: 0}
