%YAML 1.1
%TAG !u! tag:unity3d.com,2011:
--- !u!1 &1413419203332392667
GameObject:
  m_ObjectHideFlags: 0
  m_CorrespondingSourceObject: {fileID: 0}
  m_PrefabInstance: {fileID: 0}
  m_PrefabAsset: {fileID: 0}
  serializedVersion: 6
  m_Component:
  - component: {fileID: 1413419203332392666}
  m_Layer: 0
  m_Name: Fleur rose
  m_TagString: Untagged
  m_Icon: {fileID: 0}
  m_NavMeshLayer: 0
  m_StaticEditorFlags: 4294967295
  m_IsActive: 1
--- !u!4 &1413419203332392666
Transform:
  m_ObjectHideFlags: 0
  m_CorrespondingSourceObject: {fileID: 0}
  m_PrefabInstance: {fileID: 0}
  m_PrefabAsset: {fileID: 0}
  m_GameObject: {fileID: 1413419203332392667}
  m_LocalRotation: {x: -0, y: -0, z: -0, w: 1}
  m_LocalPosition: {x: 3, y: 0, z: 3}
  m_LocalScale: {x: 1, y: 1, z: 1}
  m_Children:
  - {fileID: 1408626229924913256}
  m_Father: {fileID: 0}
  m_RootOrder: 0
  m_LocalEulerAnglesHint: {x: 0, y: 0, z: 0}
--- !u!1001 &1413419203183500096
PrefabInstance:
  m_ObjectHideFlags: 0
  serializedVersion: 2
  m_Modification:
    m_TransformParent: {fileID: 1413419203332392666}
    m_Modifications:
    - target: {fileID: 1600965953560882, guid: 298fe74f912a441c0af92f7f537bc109, type: 3}
      propertyPath: m_Name
      value: enchantedforest_flower_5
      objectReference: {fileID: 0}
    - target: {fileID: 1600965953560882, guid: 298fe74f912a441c0af92f7f537bc109, type: 3}
      propertyPath: m_StaticEditorFlags
      value: 4294967295
      objectReference: {fileID: 0}
    - target: {fileID: 4797517452491560, guid: 298fe74f912a441c0af92f7f537bc109, type: 3}
      propertyPath: m_LocalPosition.x
      value: 0
      objectReference: {fileID: 0}
    - target: {fileID: 4797517452491560, guid: 298fe74f912a441c0af92f7f537bc109, type: 3}
      propertyPath: m_LocalPosition.y
      value: 0
      objectReference: {fileID: 0}
    - target: {fileID: 4797517452491560, guid: 298fe74f912a441c0af92f7f537bc109, type: 3}
      propertyPath: m_LocalPosition.z
      value: 0
      objectReference: {fileID: 0}
    - target: {fileID: 4797517452491560, guid: 298fe74f912a441c0af92f7f537bc109, type: 3}
      propertyPath: m_LocalRotation.x
      value: -0
      objectReference: {fileID: 0}
    - target: {fileID: 4797517452491560, guid: 298fe74f912a441c0af92f7f537bc109, type: 3}
      propertyPath: m_LocalRotation.y
      value: -0
      objectReference: {fileID: 0}
    - target: {fileID: 4797517452491560, guid: 298fe74f912a441c0af92f7f537bc109, type: 3}
      propertyPath: m_LocalRotation.z
      value: -0
      objectReference: {fileID: 0}
    - target: {fileID: 4797517452491560, guid: 298fe74f912a441c0af92f7f537bc109, type: 3}
      propertyPath: m_LocalRotation.w
      value: 1
      objectReference: {fileID: 0}
    - target: {fileID: 4797517452491560, guid: 298fe74f912a441c0af92f7f537bc109, type: 3}
      propertyPath: m_RootOrder
      value: 0
      objectReference: {fileID: 0}
    - target: {fileID: 4797517452491560, guid: 298fe74f912a441c0af92f7f537bc109, type: 3}
      propertyPath: m_LocalEulerAnglesHint.x
      value: 0
      objectReference: {fileID: 0}
    - target: {fileID: 4797517452491560, guid: 298fe74f912a441c0af92f7f537bc109, type: 3}
      propertyPath: m_LocalEulerAnglesHint.y
      value: 0
      objectReference: {fileID: 0}
    - target: {fileID: 4797517452491560, guid: 298fe74f912a441c0af92f7f537bc109, type: 3}
      propertyPath: m_LocalEulerAnglesHint.z
      value: 0
      objectReference: {fileID: 0}
    m_RemovedComponents:
    - {fileID: 64192823501801522, guid: 298fe74f912a441c0af92f7f537bc109, type: 3}
  m_SourcePrefab: {fileID: 100100000, guid: 298fe74f912a441c0af92f7f537bc109, type: 3}
--- !u!4 &1408626229924913256 stripped
Transform:
  m_CorrespondingSourceObject: {fileID: 4797517452491560, guid: 298fe74f912a441c0af92f7f537bc109,
    type: 3}
  m_PrefabInstance: {fileID: 1413419203183500096}
  m_PrefabAsset: {fileID: 0}
