%YAML 1.1
%TAG !u! tag:unity3d.com,2011:
--- !u!114 &11400000
MonoBehaviour:
  m_ObjectHideFlags: 0
  m_CorrespondingSourceObject: {fileID: 0}
  m_PrefabInstance: {fileID: 0}
  m_PrefabAsset: {fileID: 0}
  m_GameObject: {fileID: 0}
  m_Enabled: 1
  m_EditorHideFlags: 0
  m_Script: {fileID: 11500000, guid: 909ae7c4fc26f6842908295ba058ecc2, type: 3}
  m_Name: 05_Branch
  m_EditorClassIdentifier: 
  avatar: {fileID: 6880110776827600414, guid: 9c3b39c4c3c3eb74ba403b8021515abd, type: 3}
  difficulty: 0.3
  scaleMin: 0.8
  scaleMax: 1.5
  addForce: 1
