%YAML 1.1
%TAG !u! tag:unity3d.com,2011:
--- !u!1 &8854869743171892091
GameObject:
  m_ObjectHideFlags: 0
  m_CorrespondingSourceObject: {fileID: 0}
  m_PrefabInstance: {fileID: 0}
  m_PrefabAsset: {fileID: 0}
  serializedVersion: 6
  m_Component:
  - component: {fileID: 2058497461297651008}
  - component: {fileID: 374834767421407904}
  - component: {fileID: 4628748701922381936}
  m_Layer: 0
  m_Name: 10_OldTruck
  m_TagString: Untagged
  m_Icon: {fileID: 0}
  m_NavMeshLayer: 0
  m_StaticEditorFlags: 0
  m_IsActive: 1
--- !u!4 &2058497461297651008
Transform:
  m_ObjectHideFlags: 0
  m_CorrespondingSourceObject: {fileID: 0}
  m_PrefabInstance: {fileID: 0}
  m_PrefabAsset: {fileID: 0}
  m_GameObject: {fileID: 8854869743171892091}
  m_LocalRotation: {x: -0, y: -0, z: -0, w: 1}
  m_LocalPosition: {x: 0, y: 0, z: 0}
  m_LocalScale: {x: 100, y: 100, z: 100}
  m_Children:
  - {fileID: 3141841250196957311}
  m_Father: {fileID: 0}
  m_RootOrder: 0
  m_LocalEulerAnglesHint: {x: 0, y: 0, z: 0}
--- !u!54 &374834767421407904
Rigidbody:
  m_ObjectHideFlags: 0
  m_CorrespondingSourceObject: {fileID: 0}
  m_PrefabInstance: {fileID: 0}
  m_PrefabAsset: {fileID: 0}
  m_GameObject: {fileID: 8854869743171892091}
  serializedVersion: 2
  m_Mass: 50
  m_Drag: 1
  m_AngularDrag: 0.5
  m_UseGravity: 1
  m_IsKinematic: 0
  m_Interpolate: 0
  m_Constraints: 0
  m_CollisionDetection: 0
--- !u!208 &4628748701922381936
NavMeshObstacle:
  m_ObjectHideFlags: 0
  m_CorrespondingSourceObject: {fileID: 0}
  m_PrefabInstance: {fileID: 0}
  m_PrefabAsset: {fileID: 0}
  m_GameObject: {fileID: 8854869743171892091}
  m_Enabled: 1
  serializedVersion: 3
  m_Shape: 1
  m_Extents: {x: 1, y: 0.5, z: 2.5}
  m_MoveThreshold: 0.1
  m_Carve: 0
  m_CarveOnlyStationary: 1
  m_Center: {x: 0, y: 0, z: 0}
  m_TimeToStationary: 0.5
--- !u!1001 &560516840977796826
PrefabInstance:
  m_ObjectHideFlags: 0
  serializedVersion: 2
  m_Modification:
    m_TransformParent: {fileID: 2058497461297651008}
    m_Modifications:
    - target: {fileID: 3196804633023719077, guid: 8d1d98b3904147d4985135ed2c8e7c76,
        type: 3}
      propertyPath: m_LocalPosition.x
      value: -0.649
      objectReference: {fileID: 0}
    - target: {fileID: 3196804633023719077, guid: 8d1d98b3904147d4985135ed2c8e7c76,
        type: 3}
      propertyPath: m_LocalPosition.y
      value: -0.441
      objectReference: {fileID: 0}
    - target: {fileID: 3196804633023719077, guid: 8d1d98b3904147d4985135ed2c8e7c76,
        type: 3}
      propertyPath: m_LocalPosition.z
      value: 0
      objectReference: {fileID: 0}
    - target: {fileID: 3196804633023719077, guid: 8d1d98b3904147d4985135ed2c8e7c76,
        type: 3}
      propertyPath: m_LocalRotation.x
      value: -0
      objectReference: {fileID: 0}
    - target: {fileID: 3196804633023719077, guid: 8d1d98b3904147d4985135ed2c8e7c76,
        type: 3}
      propertyPath: m_LocalRotation.y
      value: -0
      objectReference: {fileID: 0}
    - target: {fileID: 3196804633023719077, guid: 8d1d98b3904147d4985135ed2c8e7c76,
        type: 3}
      propertyPath: m_LocalRotation.z
      value: -0
      objectReference: {fileID: 0}
    - target: {fileID: 3196804633023719077, guid: 8d1d98b3904147d4985135ed2c8e7c76,
        type: 3}
      propertyPath: m_LocalRotation.w
      value: 1
      objectReference: {fileID: 0}
    - target: {fileID: 3196804633023719077, guid: 8d1d98b3904147d4985135ed2c8e7c76,
        type: 3}
      propertyPath: m_RootOrder
      value: 0
      objectReference: {fileID: 0}
    - target: {fileID: 3196804633023719077, guid: 8d1d98b3904147d4985135ed2c8e7c76,
        type: 3}
      propertyPath: m_LocalEulerAnglesHint.x
      value: 0
      objectReference: {fileID: 0}
    - target: {fileID: 3196804633023719077, guid: 8d1d98b3904147d4985135ed2c8e7c76,
        type: 3}
      propertyPath: m_LocalEulerAnglesHint.y
      value: 0
      objectReference: {fileID: 0}
    - target: {fileID: 3196804633023719077, guid: 8d1d98b3904147d4985135ed2c8e7c76,
        type: 3}
      propertyPath: m_LocalEulerAnglesHint.z
      value: 0
      objectReference: {fileID: 0}
    - target: {fileID: 3957000551237807553, guid: 8d1d98b3904147d4985135ed2c8e7c76,
        type: 3}
      propertyPath: m_Name
      value: Hillbilly
      objectReference: {fileID: 0}
    m_RemovedComponents: []
  m_SourcePrefab: {fileID: 100100000, guid: 8d1d98b3904147d4985135ed2c8e7c76, type: 3}
--- !u!4 &3141841250196957311 stripped
Transform:
  m_CorrespondingSourceObject: {fileID: 3196804633023719077, guid: 8d1d98b3904147d4985135ed2c8e7c76,
    type: 3}
  m_PrefabInstance: {fileID: 560516840977796826}
  m_PrefabAsset: {fileID: 0}
