%YAML 1.1
%TAG !u! tag:unity3d.com,2011:
--- !u!114 &11400000
MonoBehaviour:
  m_ObjectHideFlags: 0
  m_CorrespondingSourceObject: {fileID: 0}
  m_PrefabInstance: {fileID: 0}
  m_PrefabAsset: {fileID: 0}
  m_GameObject: {fileID: 0}
  m_Enabled: 1
  m_EditorHideFlags: 0
  m_Script: {fileID: 11500000, guid: 909ae7c4fc26f6842908295ba058ecc2, type: 3}
  m_Name: 11_OldCar
  m_EditorClassIdentifier: 
  avatar: {fileID: 1713550914078921976, guid: beefb1a35ff24b94694a6a8d37cff9db, type: 3}
  difficulty: 0.4
  scaleMin: 0.8
  scaleMax: 2
  addForce: 1
